{
  "code": 200,
  "data": [
    {
      "group_COUNT": 8605.4,
      "pickup_weekday": 0,
      "total_amount_AVG": 15.338570432519116,
      "travel_speed_AVG": 12.056123681855423,
      "travel_time_AVG": 16.122671036016143
    },
    {
      "group_COUNT": 10315.8,
      "pickup_weekday": 1,
      "total_amount_AVG": 15.201703794179803,
      "travel_speed_AVG": 10.885176291196114,
      "travel_time_AVG": 16.403421289025896
    },
    {
      "group_COUNT": 11042.6,
      "pickup_weekday": 2,
      "total_amount_AVG": 15.604998279390724,
      "travel_speed_AVG": 11.533585363228173,
      "travel_time_AVG": 16.417059388187564
    },
    {
      "group_COUNT": 9792.5,
      "pickup_weekday": 3,
      "total_amount_AVG": 15.430624968087821,
      "travel_speed_AVG": 10.148267263223948,
      "travel_time_AVG": 17.369304740022123
    },
    {
      "group_COUNT": 10449.25,
      "pickup_weekday": 4,
      "total_amount_AVG": 16.153205253965595,
      "travel_speed_AVG": 10.166426108361259,
      "travel_time_AVG": 18.386991091864648
    },
    {
      "group_COUNT": 9772.5,
      "pickup_weekday": 5,
      "total_amount_AVG": 14.471823740086977,
      "travel_speed_AVG": 11.481609345789971,
      "travel_time_AVG": 17.609797902276796
    },
    {
      "group_COUNT": 9208.25,
      "pickup_weekday": 6,
      "total_amount_AVG": 14.799913664377053,
      "travel_speed_AVG": 13.218625936248142,
      "travel_time_AVG": 16.43964741762369
    }
  ]
}
