{
  "code": 200,
  "data": [{
      "PULocationID": "230",
      "group_COUNT": 427,
      "total_amount_AVG": 14.07536299765808,
      "travel_speed_AVG": 12.57017375605998,
      "travel_time_AVG": 14.372287275565963
    },
    {
      "PULocationID": "161",
      "group_COUNT": 394,
      "total_amount_AVG": 14.435736040609138,
      "travel_speed_AVG": 13.843449853946504,
      "travel_time_AVG": 10.539890016920472
    },
    {
      "PULocationID": "48",
      "group_COUNT": 324,
      "total_amount_AVG": 15.303549382716051,
      "travel_speed_AVG": 15.196421822195566,
      "travel_time_AVG": 15.645833333333334
    },
    {
      "PULocationID": "234",
      "group_COUNT": 318,
      "total_amount_AVG": 14.287452830188679,
      "travel_speed_AVG": 13.85826419615406,
      "travel_time_AVG": 15.573375262054507
    },
    {
      "PULocationID": "79",
      "group_COUNT": 291,
      "total_amount_AVG": 13.192783505154638,
      "travel_speed_AVG": 15.590686212134123,
      "travel_time_AVG": 10.210595647193585
    },
    {
      "PULocationID": "163",
      "group_COUNT": 279,
      "total_amount_AVG": 13.878709677419355,
      "travel_speed_AVG": 14.113199394159883,
      "travel_time_AVG": 11.103763440860215
    },
    {
      "PULocationID": "132",
      "group_COUNT": 248,
      "total_amount_AVG": 56.3870564516129,
      "travel_speed_AVG": 138.32342227007885,
      "travel_time_AVG": 36.76532258064516
    },
    {
      "PULocationID": "162",
      "group_COUNT": 248,
      "total_amount_AVG": 13.47366935483871,
      "travel_speed_AVG": 16.725585623881617,
      "travel_time_AVG": 9.459072580645161
    },
    {
      "PULocationID": "249",
      "group_COUNT": 231,
      "total_amount_AVG": 15.082380952380953,
      "travel_speed_AVG": 19.82977715380707,
      "travel_time_AVG": 11.705050505050506
    },
    {
      "PULocationID": "164",
      "group_COUNT": 223,
      "total_amount_AVG": 14.229058295964125,
      "travel_speed_AVG": 14.11584470339388,
      "travel_time_AVG": 16.622795216741405
    }
  ]
}
